…
Basically, you already know how to use `sendQuery`. In our introductory example we used it to create a database table and to query some data.

In your normal work-flow you will sometimes want to split up a complex query into more tangible chunks. The approach we take here is to allow for a vector of queries as argument. The result of these queries have to be *row-bindable*. To make an example lets say we want to query each state separately:

``` r
queryFun <- function(state) {
  paste0("SELECT * FROM USArrests WHERE State = '", state, "';")
}

sendQuery(cred, queryFun(dat$State))
```

    ## # A tibble: 50 × 5
    ##          State Murder Assault UrbanPop  Rape
    ##          <chr>  <dbl>   <dbl>    <dbl> <dbl>
    ## 1      Alabama   13.2     236       58  21.2
    ## 2       Alaska   10.0     263       48  44.5
    ## 3      Arizona    8.1     294       80  31.0
    ## 4     Arkansas    8.8     190       50  19.5
    ## 5   California    9.0     276       91  40.6
    ## 6     Colorado    7.9     204       78  38.7
    ## 7  Connecticut    3.3     110       77  11.1
    ## 8     Delaware    5.9     238       72  15.8
    ## 9      Florida   15.4     335       80  31.9
    ## 10     Georgia   17.4     211       60  25.8
    ## # ... with 40 more rows
…
Now we want to load the data from `example1.db` and `example.db` which can be implemented as follows:

``` r
cred <- Credentials(
  RSQLite::SQLite, 
  dbname = c("example.db", "example1.db")
)

sendQuery(cred, "SELECT * FROM USArrests;")
```

    ## # A tibble: 100 × 5
    ##          State Murder Assault UrbanPop  Rape
    ##          <chr>  <dbl>   <dbl>    <dbl> <dbl>
    ## 1      Alabama   13.2     236       58  21.2
    ## 2       Alaska   10.0     263       48  44.5
    ## 3      Arizona    8.1     294       80  31.0
    ## 4     Arkansas    8.8     190       50  19.5
    ## 5   California    9.0     276       91  40.6
    ## 6     Colorado    7.9     204       78  38.7
    ## 7  Connecticut    3.3     110       77  11.1
    ## 8     Delaware    5.9     238       72  15.8
    ## 9      Florida   15.4     335       80  31.9
    ## 10     Georgia   17.4     211       60  25.8
    ## # ... with 90 more rows

It might also be of interest to query your databases in parallel. For that it is possible to supply a apply/map function which in turn can be a parallel lapply like mclapply or something else:

``` r
sendQuery(
  cred, 
  "SELECT * FROM USArrests;", 
  mc.cores = 2, 
  applyFun = parallel::mclapply
)
```

    ## # A tibble: 100 × 5
    ##          State Murder Assault UrbanPop  Rape
    ##          <chr>  <dbl>   <dbl>    <dbl> <dbl>
    ## 1      Alabama   13.2     236       58  21.2
    ## 2       Alaska   10.0     263       48  44.5
    ## 3      Arizona    8.1     294       80  31.0
    ## 4     Arkansas    8.8     190       50  19.5
    ## 5   California    9.0     276       91  40.6
    ## 6     Colorado    7.9     204       78  38.7
    ## 7  Connecticut    3.3     110       77  11.1
    ## 8     Delaware    5.9     238       72  15.8
    ## 9      Florida   15.4     335       80  31.9
    ## 10     Georgia   17.4     211       60  25.8
    ## # ... with 90 more rows

Potentially you can send multiple queries to multiple databases. The results are tried to be simplified by default:

``` r
sendQuery(cred, c("SELECT * FROM USArrests;", "SELECT 1 AS x;"))
```

    ## [[1]]
    ## # A tibble: 100 × 5
    ##          State Murder Assault UrbanPop  Rape
    ##          <chr>  <dbl>   <dbl>    <dbl> <dbl>
    ## 1      Alabama   13.2     236       58  21.2
    ## 2       Alaska   10.0     263       48  44.5
    ## 3      Arizona    8.1     294       80  31.0
    ## 4     Arkansas    8.8     190       50  19.5
    ## 5   California    9.0     276       91  40.6
    ## 6     Colorado    7.9     204       78  38.7
    ## 7  Connecticut    3.3     110       77  11.1
    ## 8     Delaware    5.9     238       72  15.8
    ## 9      Florida   15.4     335       80  31.9
    ## 10     Georgia   17.4     211       60  25.8
    ## # ... with 90 more rows
    ## 
    ## [[2]]
    ## # A tibble: 2 × 1
    ##       x
    ##   <int>
    ## 1     1
    ## 2     1

``` r
sendQuery(cred, c("SELECT * FROM USArrests;", "SELECT 1 AS x;"), simplify = FALSE)
```

    ## [[1]]
    ## [[1]][[1]]
    ## # A tibble: 50 × 5
    ##          State Murder Assault UrbanPop  Rape
    ##          <chr>  <dbl>   <dbl>    <dbl> <dbl>
    ## 1      Alabama   13.2     236       58  21.2
    ## 2       Alaska   10.0     263       48  44.5
    ## 3      Arizona    8.1     294       80  31.0
    ## 4     Arkansas    8.8     190       50  19.5
    ## 5   California    9.0     276       91  40.6
    ## 6     Colorado    7.9     204       78  38.7
    ## 7  Connecticut    3.3     110       77  11.1
    ## 8     Delaware    5.9     238       72  15.8
    ## 9      Florida   15.4     335       80  31.9
    ## 10     Georgia   17.4     211       60  25.8
    ## # ... with 40 more rows
    ## 
    ## [[1]][[2]]
    ## # A tibble: 1 × 1
    ##       x
    ##   <int>
    ## 1     1
    ## 
    ## 
    ## [[2]]
    ## [[2]][[1]]
    ## # A tibble: 50 × 5
    ##          State Murder Assault UrbanPop  Rape
    ##          <chr>  <dbl>   <dbl>    <dbl> <dbl>
    ## 1      Alabama   13.2     236       58  21.2
    ## 2       Alaska   10.0     263       48  44.5
    ## 3      Arizona    8.1     294       80  31.0
    ## 4     Arkansas    8.8     190       50  19.5
    ## 5   California    9.0     276       91  40.6
    ## 6     Colorado    7.9     204       78  38.7
    ## 7  Connecticut    3.3     110       77  11.1
    ## 8     Delaware    5.9     238       72  15.8
    ## 9      Florida   15.4     335       80  31.9
    ## 10     Georgia   17.4     211       60  25.8
    ## # ... with 40 more rows
    ## 
    ## [[2]][[2]]
…
